…
#Using the vancouver_trees dataset from datateachr
#One grouping variable
count_obs(vancouver_trees, "neighbourhood_name")
#> # A tibble: 22 × 2
#>    neighbourhood_name       num_obs
#>    <chr>                      <int>
#>  1 ARBUTUS-RIDGE               5169
#>  2 DOWNTOWN                    5159
#>  3 DUNBAR-SOUTHLANDS           9415
#>  4 FAIRVIEW                    4002
#>  5 GRANDVIEW-WOODLAND          6703
#>  6 HASTINGS-SUNRISE           10547
#>  7 KENSINGTON-CEDAR COTTAGE   11042
#>  8 KERRISDALE                  6936
#>  9 KILLARNEY                   6148
#> 10 KITSILANO                   8115
#> # ℹ 12 more rows

#Multiple grouping variables
count_obs(vancouver_trees, c("neighbourhood_name", "genus_name", "species_name"))
#> # A tibble: 3,713 × 4
#>    neighbourhood_name genus_name species_name num_obs
#>    <chr>              <chr>      <chr>          <int>
#>  1 ARBUTUS-RIDGE      ABIES      GRANDIS           18
#>  2 ARBUTUS-RIDGE      ACER       CAMPESTRE        120
#>  3 ARBUTUS-RIDGE      ACER       CAPPADOCICUM       8
#>  4 ARBUTUS-RIDGE      ACER       CIRCINATUM         1
#>  5 ARBUTUS-RIDGE      ACER       FREEMANI   X      29
#>  6 ARBUTUS-RIDGE      ACER       GINNALA            5
#>  7 ARBUTUS-RIDGE      ACER       GRISEUM           52
#>  8 ARBUTUS-RIDGE      ACER       JAPONICUM          1
#>  9 ARBUTUS-RIDGE      ACER       MACROPHYLLUM      10
#> 10 ARBUTUS-RIDGE      ACER       NEGUNDO            4
#> # ℹ 3,703 more rows
…
